155846 883514 525
890314 748597 525
380775 619509 470
874683 935562 476
539607 554070 452
673704 199701 509
37362 315374 443
608562 350578 470
649902 139904 509
754071 185003 509
234747 698518 509
710200 855413 525
663723 172821 509
308730 823432 509
939360 412513 525
154078 309181 443
511997 409454 470
336790 888475 525
656311 220950 509
223677 735991 509
886170 341502 525
346485 466119 449
430951 754219 509
700605 864448 525
30063 440888 449
504988 460291 444
18327 693306 509
961975 334188 525
428303 133979 449
547254 37234 470
33710 316958 443
855732 447740 525
729185 774992 468
96978 127156 354
460895 804303 509
435354 321217 449
235297 52981 443
986511 834036 525
539928 746916 509
676732 914672 525
127750 106294 349
209159 411307 449
797222 940230 525
110620 270427 443
89948 803093 509
7949 980617 525
559799 2322 470
367078 535737 470
273913 366235 441
610097 252309 470
373128 762517 509
633579 658849 429
388351 384406 348
875278 686165 525
989080 178845 525
990996 677075 525
168011 655778 509
656411 496121 509
418110 255569 449
470703 561571 470
813994 249863 509
440847 247471 449
64860 382483 443
942970 927642 507
757590 678814 504
632476 38531 509
229988 792218 509
365409 143712 443
397037 34738 443
642393 892672 525
76555 694897 509
674603 631830 442
776937 939302 525
4994 666136 509
281410 770540 509
722019 260892 509
653374 133440 509
315434 883434 525
452035 688466 509
981996 598207 525
133815 878800 525
387912 91067 443
138528 429398 449
331330 346792 441
137374 992059 525
401733 438876 449
419117 575388 470
296556 213752 443
615633 495527 470
835979 437182 509
129284 387811 443
705630 252302 509
233271 217835 443
264199 671547 509
880444 959192 507
687650 444398 509
725462 36846 509
511492 533852 470
866787 414112 525
828863 53517 509
437704 702807 509
528428 661658 509
673523 535681 509
957232 263767 525
542948 509367 470
669032 944287 525
98637 523295 470
671267 922579 525
89687 148849 375
256279 898674 525
513652 877007 525
670265 207542 509
398500 40195 443
399940 56674 443
416081 455473 418
162784 872244 525
218096 642749 509
542958 657067 509
51724 370346 443
420526 831570 509
512452 820127 509
699287 784988 504
893090 442938 525
134956 563426 470
541035 163290 470
795007 79072 509
896727 475978 525
811348 653646 504
21466 764637 509
681257 749046 504
113915 732502 509
14891 677374 509
463005 175119 449
789314 781212 406
919461 558030 525
303114 376173 441
126761 391766 443
362348 717606 509
451450 478559 444
900692 145629 525
966212 912138 507
406182 459306 449
862007 796514 525
257967 453650 449
339220 479404 449
231885 343537 407
427399 816900 509
265925 630221 509
814491 597618 509
392973 735302 509
703513 901117 525
218849 586982 470
545384 714059 509
325329 859392 525
575966 653647 509
328457 711706 509
667839 379561 509
358842 389604 436
887794 313464 525
751633 26264 509
127462 498940 449
963384 661837 525
565718 919625 525
81909 909484 525
840704 443373 525
922490 584440 525
597995 428745 470
498406 609957 470
774001 352124 509
200226 470499 449
426794 722491 509
292392 241329 407
152655 828749 509
344231 734032 509
968621 431948 525
598432 228763 470
925482 747460 525
46675 153239 375
936324 819436 525
40719 688731 509
801563 976053 525
282900 587496 470
399989 341643 441
242815 669025 509
494324 282686 449
610733 634638 509
921692 977385 507
560428 757125 509
577668 294014 470
747601 392811 509
651497 502698 509
625307 226691 470
811278 485481 509
986271 357287 525
409208 335214 441
504633 710277 509
645742 845594 525
453787 429026 400
724124 24128 509
210629 817312 509
997864 31219 525
892103 553468 525
503681 403892 449
168902 957609 525
268978 817713 509
610910 295898 470
986423 365353 525
561786 724799 509
443421 728937 509
577485 723789 509
971771 335503 525
