124 28223 308
5156 89113 351
60475 40325 340
87702 64465 351
63453 5311 340
29824 43886 324
64126 81283 351
84562 64158 351
65404 72460 325
32915 27411 285
55541 64659 335
11139 80396 351
85558 89572 333
72511 54808 335
7972 58821 340
87043 24244 351
29709 14447 308
61123 8551 340
79367 183 351
11846 58825 340
19062 52820 340
50454 48021 296
28530 83188 351
65647 45015 340
72425 3933 340
68592 14913 340
11660 37965 324
43888 86082 351
50890 7217 324
66037 26398 340
56994 65213 335
79659 69432 351
77982 3054 351
3236 57134 340
25958 67348 340
30167 21433 308
69453 51371 340
50910 86972 351
41986 7983 324
18267 26557 282
47821 30762 324
75078 3210 340
89292 59481 351
73049 28966 340
61715 56533 335
31745 55438 340
34869 35060 218
38113 27755 324
1240 29202 308
6549 47701 324
69133 33549 340
84920 43068 351
40039 54938 340
62920 45829 340
78737 88377 338
29138 87538 351
748 36558 324
12390 14216 276
49533 39 324
62923 85438 351
57227 27599 340
69011 11019 340
45125 2095 324
31296 17123 308
71175 46365 340
79913 44197 351
3616 50308 324
15245 74832 340
30661 43654 324
42030 84516 351
82053 19397 351
62306 77520 351
8087 89152 351
5542 74695 340
76485 63971 325
7921 68464 340
79482 50063 351
52158 76931 340
10406 34607 311
80971 89805 333
50353 81580 351
48239 77235 351
62067 53968 335
13974 63483 340
64350 2727 340
28475 62355 340
49874 62755 340
61906 781 340
81827 64312 351
38282 67448 340
45911 74663 340
34726 46203 324
33133 41745 324
82703 3235 351
9391 49890 324
41470 80025 351
67259 59744 335
30063 89708 351
69543 39325 340
48403 44036 314
16391 43892 324
22998 83230 351
362 72616 340
46928 84904 351
62351 82188 351
73203 85209 351
47763 24613 324
72709 24280 340
27514 87248 351
47137 65411 340
55435 43256 340
12999 88606 351
4666 39046 324
84722 49414 351
3449 74208 340
34451 49477 324
42706 19839 324
2455 57449 340
58704 43067 340
41606 55734 340
50942 37406 314
62018 31160 340
55439 8705 340
12304 44727 324
26489 89304 351
42560 59440 340
64398 88276 351
37321 61910 340
21323 69063 340
59622 38394 340
87870 24772 351
50962 10424 324
74224 46927 340
6345 59768 340
25501 42927 324
80332 54303 351
85462 82795 320
7851 58702 340
19780 57253 340
56556 20154 340
79593 46268 351
50895 15467 324
77377 53990 351
39404 88215 351
42961 15051 324
46174 15377 324
25801 40830 324
87757 7136 351
73255 16376 340
59303 4101 340
64755 15108 340
7902 55986 340
31039 60217 340
27469 15752 308
35905 50818 314
13438 376 276
15843 31849 308
2191 64332 340
68899 9571 340
24621 41594 324
63323 21859 340
62688 70795 330
84282 89123 333
15498 66796 340
77249 67536 351
82643 81152 320
53490 52003 340
28571 6896 308
22647 84528 351
45346 56039 340
62767 64903 330
6752 58783 340
39466 78609 351
88179 15294 351
63239 18364 340
40222 29151 324
9945 36561 324
42035 19262 324
86057 10578 351
78114 63885 351
55036 79657 351
48012 77108 351
84004 24877 351
19405 76582 340
42621 23002 324
4257 71102 340
46236 21739 324
10347 17360 276
32653 85701 351
14065 14877 271
44027 5891 324
42452 60638 340
79899 60324 351
70901 838 340
64722 75956 325
71964 65366 325
52474 36110 314
60986 29975 340
16557 52829 340
82182 86742 320
67843 65529 312
87267 86438 333
20149 30430 308
26131 13965 282
28841 52801 340
65044 46547 340
17184 79219 351
49542 23847 324
24684 7083 282
89390 36795 351
12160 89406 351
41867 71353 340
17680 70985 340
40165 12852 324
9594 34236 308
9764 32347 308
35136 83788 351
24218 13382 282
27346 55285 340
24437 56700 340
13246 62538 340
51756 89480 351
23326 30429 308
43863 17650 324
54444 48010 340
53767 43252 340
30957 72955 340
53940 5633 340
24836 48636 324
82871 4104 351
42802 34429 324
34569 8986 311
28719 77938 351
49574 58786 340
25485 56064 340
34953 74010 340
79842 45082 351
75510 3060 340
20709 13167 279
67528 29373 340
78976 81504 320
64459 37646 340
43278 19932 324
68567 28398 340
38853 68114 340
18894 61437 340
76774 81655 351
75944 59814 335
28599 15492 308
77907 35517 351
25878 60435 340
