985149 719338 525
188182 593173 470
970007 656240 525
193330 38891 383
327536 933444 525
787964 512944 509
870885 725143 525
654414 894803 525
514342 294857 470
285761 364080 441
431777 484295 444
558473 806737 509
343549 128435 443
692653 911939 525
922423 681541 525
397384 719587 509
564628 503337 470
905199 273114 525
302501 508196 449
105043 821844 509
52514 385504 443
922054 533172 525
116145 82680 354
808509 84239 509
62723 740250 509
38232 45292 314
422236 269100 449
340008 103886 443
274737 25812 443
510061 62822 449
94424 144915 375
431984 890702 525
753346 261289 509
295254 481613 449
96530 41914 351
103078 390870 443
994616 297322 525
16109 806505 509
813589 808272 406
398887 55369 443
775643 445609 509
573366 153282 470
595866 54273 470
188201 718493 509
972564 565796 525
604188 631642 509
131094 944831 525
791949 64031 509
251921 747151 509
702841 429889 509
844790 26517 525
455603 999654 525
274368 609051 470
124978 29043 354
31329 213672 383
153297 477360 449
731001 682696 504
810519 804742 406
760749 363725 509
675963 259615 509
999866 579549 525
913457 204272 525
994739 100378 525
31256 798294 509
220810 657357 509
16823 440793 449
771132 851974 525
586643 379095 470
542816 930026 525
62412 992538 525
277993 70753 443
633926 493769 509
795767 691106 504
189212 493555 449
969105 489948 525
486668 707174 509
988070 321582 525
997619 672069 525
389700 255996 441
626764 55214 509
234894 82286 443
511355 908084 525
209947 906818 525
495208 981490 525
75704 248674 443
169159 205578 365
578186 437899 470
929180 222508 525
261478 551450 470
328311 985493 525
427901 99007 449
790454 808806 468
871166 879880 432
544040 744925 509
914633 337731 525
385262 221604 443
645093 943333 525
605186 203431 470
236596 947115 525
341820 815184 509
239319 264943 407
683480 623772 509
861937 393298 525
395074 786539 509
905673 593100 525
148380 717948 509
350726 431010 449
352326 923885 525
854914 654369 525
101666 709266 509
368452 533070 470
809710 391298 509
594361 996582 525
511635 192175 449
398967 627889 509
326156 754846 509
276623 468690 449
624861 685193 509
752318 160906 509
644361 187391 509
626533 340222 509
482551 554222 470
946884 878359 507
746595 97795 509
841654 737251 525
545963 614015 452
664341 657553 398
840279 220796 525
693055 471752 509
488623 693317 509
443909 414811 418
492618 286562 449
808755 702137 504
134303 285211 443
346292 877900 525
418212 564796 470
360772 589387 470
624180 580863 447
443638 990367 525
917724 442430 525
601904 200390 470
445594 321625 449
153376 231388 443
863460 509232 525
968038 992054 458
851805 453823 525
527132 898920 525
804423 365113 509
285771 435566 449
718238 936678 525
4613 977513 525
564795 84470 470
502396 42081 449
319932 519297 470
685637 768940 504
802057 283351 509
995776 36973 525
854639 769530 525
30428 444339 449
231036 963707 525
957428 44691 525
431017 387255 449
74200 930817 525
622517 502866 470
738490 716280 424
286584 883661 525
180287 357245 443
175345 388914 443
880887 797731 525
596903 113591 470
526611 106007 470
652848 775436 504
205992 535784 470
350833 912741 525
888322 436482 525
470278 224820 449
268125 996186 525
321795 47088 443
933970 46396 525
18509 472639 449
932450 874834 476
715781 669416 504
72210 718263 509
38667 161271 383
876054 24528 525
876074 557210 525
290902 475708 449
347316 779973 509
686154 35841 509
507838 47975 449
999026 839144 507
809380 338095 509
550881 916070 525
932500 18854 525
460588 683169 509
962989 810869 525
971200 853898 507
614719 477874 470
826189 700014 504
674550 281873 509
320494 877691 525
317499 900826 525
10582 552317 470
269858 386189 441
626088 634185 509
217930 139149 386
831816 120521 509
465155 507662 426
218179 856956 525
376873 512743 470
926517 213274 525
165529 279714 443
850517 404919 525
45164 267469 443
191631 934445 525
671383 661612 442
695386 77632 509
433888 420821 418
522438 422381 470
138042 647163 509
48528 767531 509
446041 460281 387
638730 184303 509
792852 655528 504
121040 126143 336
592576 911390 525
174634 148795 383
356358 68260 443
716933 188682 509
119375 171077 383
49040 587010 470
39662 66198 340
130747 601449 470
43220 455842 449
228672 32884 386
268729 470475 449
846755 482472 525
235860 536896 470
672191 731983 504
88762 680649 509
40919 735667 509
